module myapp

go 1.17

require (
	github.com/rs/zerolog v1.25.0
	gorm.io/gorm v1.21.15
)

require (
	github.com/jinzhu/inflection v1.0.0 // indirect
	github.com/jinzhu/now v1.1.2 // indirect
	gorm.io/driver/postgres v1.1.2
)

require (
	cloud.google.com/go/errorreporting v0.1.0
	github.com/jackc/chunkreader/v2 v2.0.1 // indirect
	github.com/jackc/pgconn v1.10.0 // indirect
	github.com/jackc/pgio v1.0.0 // indirect
	github.com/jackc/pgpassfile v1.0.0 // indirect
	github.com/jackc/pgproto3/v2 v2.1.1 // indirect
	github.com/jackc/pgservicefile v0.0.0-20200714003250-2b9c44734f2b // indirect
	github.com/jackc/pgtype v1.8.1 // indirect
	github.com/jackc/pgx/v4 v4.13.0 // indirect
	github.com/joeshaw/envdecode v0.0.0-20200121155833-099f1fc765bd
	github.com/joho/godotenv v1.4.0
	github.com/pkg/errors v0.9.1
	golang.org/x/text v0.3.7 // indirect
)

require (
	cloud.google.com/go v0.92.2 // indirect
	github.com/golang/groupcache v0.0.0-20200121045136-8c9f03a8e57e // indirect
	github.com/golang/protobuf v1.5.2 // indirect
	github.com/google/go-cmp v0.5.6 // indirect
	github.com/googleapis/gax-go/v2 v2.0.5 // indirect
	github.com/labstack/echo/v4 v4.6.1
	go.opencensus.io v0.23.0 // indirect
	golang.org/x/crypto v0.0.0-20210921155107-089bfa567519
	golang.org/x/net v0.0.0-20210913180222-943fd674d43e // indirect
	golang.org/x/oauth2 v0.0.0-20210805134026-6f1e6394065a // indirect
	golang.org/x/sync v0.0.0-20210220032951-036812b2e83c // indirect
	golang.org/x/sys v0.0.0-20210910150752-751e447fb3d0 // indirect
	google.golang.org/api v0.54.0 // indirect
	google.golang.org/appengine v1.6.7 // indirect
	google.golang.org/genproto v0.0.0-20210813162853-db860fec028c // indirect
	google.golang.org/grpc v1.39.1 // indirect
	google.golang.org/protobuf v1.27.1 // indirect
)

require (
	github.com/gin-contrib/cors v1.3.1
	github.com/google/uuid v1.3.0
	github.com/labstack/gommon v0.3.0 // indirect
	github.com/mattn/go-colorable v0.1.8 // indirect
	github.com/mattn/go-isatty v0.0.14 // indirect
	github.com/valyala/bytebufferpool v1.0.0 // indirect
	github.com/valyala/fasttemplate v1.2.1 // indirect
)

require (
	github.com/gin-contrib/sse v0.1.0 // indirect
	github.com/gin-gonic/gin v1.5.0 // indirect
	github.com/go-playground/locales v0.12.1 // indirect
	github.com/go-playground/universal-translator v0.16.0 // indirect
	github.com/json-iterator/go v1.1.7 // indirect
	github.com/labstack/echo v3.3.10+incompatible
	github.com/leodido/go-urn v1.1.0 // indirect
	github.com/modern-go/concurrent v0.0.0-20180228061459-e0a39a4cb421 // indirect
	github.com/modern-go/reflect2 v0.0.0-20180701023420-4b7aa43c6742 // indirect
	github.com/ugorji/go/codec v1.1.7 // indirect
	gopkg.in/go-playground/validator.v9 v9.29.1 // indirect
	gopkg.in/yaml.v2 v2.2.3 // indirect
)

require (
	github.com/dgrijalva/jwt-go v3.2.0+incompatible // indirect
	github.com/golang-jwt/jwt v3.2.2+incompatible // indirect
	golang.org/x/time v0.0.0-20201208040808-7e3f01d25324 // indirect
)
